{
"templates":{
        "SEND_EADD":   "(Запрос на помещение документа в архив:)( )([0-9]+)",
        "RESULT_EADD":     "(Подтверждение о размещении документов в ЭАДД:)( )([0-9]+)",
        "ERROR_EADD":  "(Ошибка обработки документов в ЭАДД:)( )([0-9]+)", 
        "SEND_OPENPROC": "(Запрос на открытие процедуры декларирования:)( )([0-9]+)",
        "RESULT_OPENPROC": "(Разрешение на открытие процедуры ЭД:)( )([0-9]+)",
        "CONFIRM":"(Подтверждение о приеме сообщения:)( )([0-9]+)",
        "REGISTRATION_DECL":      "(Регистрационный номер электронной декларации:)( )([0-9]+)",
        "SEND_PI":      "(Отправка авто ПИ:)( )([0-9]+)",
        "REGISTRATION_PI":     "(Подтверждение регистрации ПИ:)( )([0-9]+)",
        "EK_END_DECL":      "(Выпуск ДТ ЭК:)( )([0-9]+)",
        "IMP_END_DECL":     "(Выпуск ДТ ИМ:)( )([0-9]+)",
        "CUSTOMS_RECEICVE_DECL":   "(Уведомление о получении ДТ на таможенном посту:)( )([0-9]+)",
        "EK_FIRST_DECL":"(Первичный набор ЭК:)( )([0-9]+)",
        "IMP_FIRST_DECL":"(Первичный набор ИМ:)( )([0-9]+)",
        "DECL_CONTROL_44":   "(Информация о некорректно проставленных признаках:)( )([0-9]+)",
        "TRANSIT_UIN":  "(УИН для транзитной декларации:)( )([0-9]+)",
        "TRANSIT_SEND":   "(Электронная транзитная декларация и опись \\(контейнер\\):)( )([0-9]+)",
        "GATEWAY_OK":"(newGW\\.00004:)( )([0-9]+)",
        "GATEWAY_ERR":"(newGW\\.00001:)( )([0-9]+)",
        "TRANSIT_PTD_SEND":   "(Предвариетльная электронная транзитная декларация \\(контейнер\\):)( )([0-9]+)"
    }
}